<details begin="1582536961082" end="1582536964751" md5sum="9fe018f66a9e61197f59351eedc68e68" >
<cmd><![CDATA[ /opt/intelFPGA_lite/19.1/quartus/bin/quartus_cpf -c -q 1MHz -g 3.3 -n p TimeCounter.sof TimeCounter.svf]]></cmd>
<stdout><![CDATA[Info: *******************************************************************
Info: Running Quartus Prime Convert_programming_file
    Info: Version 19.1.0 Build 670 09/22/2019 SJ Lite Edition
    Info: Copyright (C) 2019  Intel Corporation. All rights reserved.
    Info: Your use of Intel Corporation's design tools, logic functions 
    Info: and other software and tools, and any partner logic 
    Info: functions, and any output files from any of the foregoing 
    Info: (including device programming or simulation files), and any 
    Info: associated documentation or information are expressly subject 
    Info: to the terms and conditions of the Intel Program License 
    Info: Subscription Agreement, the Intel Quartus Prime License Agreement,
    Info: the Intel FPGA IP License Agreement, or other applicable license
    Info: agreement, including, without limitation, that your use is for
    Info: the sole purpose of programming logic devices manufactured by
    Info: Intel and sold by Intel or its authorized distributors.  Please
    Info: refer to the applicable agreement for further details, at
    Info: https://fpgasoftware.intel.com/eula.
    Info: Processing started: Mon Feb 24 09:36:02 2020
Info: Command: quartus_cpf -c -q 1MHz -g 3.3 -n p TimeCounter.sof TimeCounter.svf
Info: Quartus Prime Convert_programming_file was successful. 0 errors, 0 warnings
    Info: Peak virtual memory: 551 megabytes
    Info: Processing ended: Mon Feb 24 09:36:04 2020
    Info: Elapsed time: 00:00:02
    Info: Total CPU time (on all processors): 00:00:02]]></stdout>
<stderr><![CDATA[not implemented yet]]></stderr>
</details>
