<details begin="1582536883284" end="1582536916811" md5sum="4214853682d587b338cceb59c0bf6641" >
<cmd><![CDATA[ /opt/intelFPGA_lite/19.1/quartus/bin/quartus_map --source=/source/src/time_counter.v --source=/source/src/visual/parts/rl_kyx2481as.v --source=/source/src/visual/seven_segment/rl_vis_7seg_enc.v --source=/source/src/clock/rl_clk_div.v --family Cyclone\ IV\ E --optimize=speed TimeCounter]]></cmd>
<stdout><![CDATA[Info: *******************************************************************
Info: Running Quartus Prime Analysis & Synthesis
    Info: Version 19.1.0 Build 670 09/22/2019 SJ Lite Edition
    Info: Copyright (C) 2019  Intel Corporation. All rights reserved.
    Info: Your use of Intel Corporation's design tools, logic functions 
    Info: and other software and tools, and any partner logic 
    Info: functions, and any output files from any of the foregoing 
    Info: (including device programming or simulation files), and any 
    Info: associated documentation or information are expressly subject 
    Info: to the terms and conditions of the Intel Program License 
    Info: Subscription Agreement, the Intel Quartus Prime License Agreement,
    Info: the Intel FPGA IP License Agreement, or other applicable license
    Info: agreement, including, without limitation, that your use is for
    Info: the sole purpose of programming logic devices manufactured by
    Info: Intel and sold by Intel or its authorized distributors.  Please
    Info: refer to the applicable agreement for further details, at
    Info: https://fpgasoftware.intel.com/eula.
    Info: Processing started: Mon Feb 24 09:34:47 2020
Info: Command: quartus_map --source=/source/src/time_counter.v --source=/source/src/visual/parts/rl_kyx2481as.v --source=/source/src/visual/seven_segment/rl_vis_7seg_enc.v --source=/source/src/clock/rl_clk_div.v --family="Cyclone IV E" --optimize=speed TimeCounter
Info (20032): Parallel compilation is enabled and will use up to 4 processors
Info (12021): Found 1 design units, including 1 entities, in source file /source/src/time_counter.v
    Info (12023): Found entity 1: time_counter File: /source/src/time_counter.v Line: 1
Info (12021): Found 1 design units, including 1 entities, in source file /source/src/visual/parts/rl_kyx2481as.v
    Info (12023): Found entity 1: rl_kyx2481as File: /source/src/visual/parts/rl_kyx2481as.v Line: 19
Info (12021): Found 1 design units, including 1 entities, in source file /source/src/visual/seven_segment/rl_vis_7seg_enc.v
    Info (12023): Found entity 1: rl_vis_7seg_enc File: /source/src/visual/seven_segment/rl_vis_7seg_enc.v Line: 12
Info (12021): Found 1 design units, including 1 entities, in source file /source/src/clock/rl_clk_div.v
    Info (12023): Found entity 1: rl_clk_div File: /source/src/clock/rl_clk_div.v Line: 1
Info (12127): Elaborating entity "time_counter" for the top level hierarchy
Warning (10230): Verilog HDL assignment warning at time_counter.v(37): truncated value with size 32 to match size of target (4) File: /source/src/time_counter.v Line: 37
Warning (10230): Verilog HDL assignment warning at time_counter.v(41): truncated value with size 32 to match size of target (3) File: /source/src/time_counter.v Line: 41
Warning (10230): Verilog HDL assignment warning at time_counter.v(47): truncated value with size 32 to match size of target (4) File: /source/src/time_counter.v Line: 47
Warning (10230): Verilog HDL assignment warning at time_counter.v(53): truncated value with size 32 to match size of target (3) File: /source/src/time_counter.v Line: 53
Warning (10230): Verilog HDL assignment warning at time_counter.v(59): truncated value with size 32 to match size of target (3) File: /source/src/time_counter.v Line: 59
Info (12128): Elaborating entity "rl_clk_div" for hierarchy "rl_clk_div:m_clock_1kHz" File: /source/src/time_counter.v Line: 16
Info (12128): Elaborating entity "rl_clk_div" for hierarchy "rl_clk_div:m_clock_2Hz" File: /source/src/time_counter.v Line: 23
Info (12128): Elaborating entity "rl_kyx2481as" for hierarchy "rl_kyx2481as:m_seven_segments" File: /source/src/time_counter.v Line: 75
Warning (10230): Verilog HDL assignment warning at rl_kyx2481as.v(57): truncated value with size 32 to match size of target (4) File: /source/src/visual/parts/rl_kyx2481as.v Line: 57
Warning (10230): Verilog HDL assignment warning at rl_kyx2481as.v(58): truncated value with size 4 to match size of target (1) File: /source/src/visual/parts/rl_kyx2481as.v Line: 58
Warning (10230): Verilog HDL assignment warning at rl_kyx2481as.v(60): truncated value with size 32 to match size of target (2) File: /source/src/visual/parts/rl_kyx2481as.v Line: 60
Info (12128): Elaborating entity "rl_vis_7seg_enc" for hierarchy "rl_kyx2481as:m_seven_segments|rl_vis_7seg_enc:digit0_ctrl" File: /source/src/visual/parts/rl_kyx2481as.v Line: 38
Info (286030): Timing-Driven Synthesis is running
Warning (12241): 1 hierarchies have connectivity warnings - see the Connectivity Checks report folder
Info (16010): Generating hard_block partition "hard_block:auto_generated_inst"
    Info (16011): Adding 0 node(s), including 0 DDIO, 0 PLL, 0 transceiver and 0 LCELL
Warning (21074): Design contains 4 input pin(s) that do not drive logic
    Warning (15610): No output dependent on input pin "KEY[0]" File: /source/src/time_counter.v Line: 8
    Warning (15610): No output dependent on input pin "KEY[1]" File: /source/src/time_counter.v Line: 8
    Warning (15610): No output dependent on input pin "KEY[2]" File: /source/src/time_counter.v Line: 8
    Warning (15610): No output dependent on input pin "KEY[3]" File: /source/src/time_counter.v Line: 8
Info (21057): Implemented 224 device resources after synthesis - the final resource count might be different
    Info (21058): Implemented 5 input pins
    Info (21059): Implemented 12 output pins
    Info (21061): Implemented 207 logic cells
Info (144001): Generated suppressed messages file /source/build/TimeCounter.map.smsg
Info: Quartus Prime Analysis & Synthesis was successful. 0 errors, 14 warnings
    Info: Peak virtual memory: 1082 megabytes
    Info: Processing ended: Mon Feb 24 09:35:16 2020
    Info: Elapsed time: 00:00:29
    Info: Total CPU time (on all processors): 00:01:24]]></stdout>
<stderr><![CDATA[not implemented yet]]></stderr>
</details>
